%YAML 1.1
%TAG !u! tag:unity3d.com,2011:
--- !u!1 &5800111416410793130
GameObject:
  m_ObjectHideFlags: 0
  m_CorrespondingSourceObject: {fileID: 0}
  m_PrefabInstance: {fileID: 0}
  m_PrefabAsset: {fileID: 0}
  serializedVersion: 6
  m_Component:
  - component: {fileID: 5800111416410793128}
  - component: {fileID: 5800111416410793129}
  m_Layer: 0
  m_Name: LevelSession
  m_TagString: Untagged
  m_Icon: {fileID: 0}
  m_NavMeshLayer: 0
  m_StaticEditorFlags: 0
  m_IsActive: 1
--- !u!4 &5800111416410793128
Transform:
  m_ObjectHideFlags: 0
  m_CorrespondingSourceObject: {fileID: 0}
  m_PrefabInstance: {fileID: 0}
  m_PrefabAsset: {fileID: 0}
  m_GameObject: {fileID: 5800111416410793130}
  m_LocalRotation: {x: 0, y: 0, z: 0, w: 1}
  m_LocalPosition: {x: 0, y: 0, z: 0}
  m_LocalScale: {x: 1, y: 1, z: 1}
  m_Children: []
  m_Father: {fileID: 0}
  m_RootOrder: 0
  m_LocalEulerAnglesHint: {x: 0, y: 0, z: 0}
--- !u!114 &5800111416410793129
MonoBehaviour:
  m_ObjectHideFlags: 0
  m_CorrespondingSourceObject: {fileID: 0}
  m_PrefabInstance: {fileID: 0}
  m_PrefabAsset: {fileID: 0}
  m_GameObject: {fileID: 5800111416410793130}
  m_Enabled: 1
  m_EditorHideFlags: 0
  m_Script: {fileID: 11500000, guid: d47321268efd1d84abb48be7ce9df6d5, type: 3}
  m_Name: 
  m_EditorClassIdentifier: 
  bagFactories:
  - {fileID: 2501376627585216194, guid: f86212e0e896c034aaa84d9e7bd2ff0a, type: 3}
  goodsFactories:
  - {fileID: 417397923724097233, guid: ace4dde7e61b6f740b4fe9ea7a776f80, type: 3}
  levelNumber: 1
  movableObjectsParent: {fileID: 0}
  successImage: {fileID: 7010761310787152600, guid: a2b7f606f9f1dd54ab39b3a3f57beec4,
    type: 3}
  unSuccessImage: {fileID: 6815474840925869693, guid: 327e83788c9cb9349b74dbeab6000db0,
    type: 3}
